^E:\PROJECTS\SCHOOL\CS-663\PROJECT1\CODE\RELEASE\BITMAP.OBJ|E:\PROJECTS\SCHOOL\CS-663\PROJECT1\CODE\RELEASE\CAMERA.OBJ|E:\PROJECTS\SCHOOL\CS-663\PROJECT1\CODE\RELEASE\MODELERAPP.OBJ|E:\PROJECTS\SCHOOL\CS-663\PROJECT1\CODE\RELEASE\MODELERDRAW.OBJ|E:\PROJECTS\SCHOOL\CS-663\PROJECT1\CODE\RELEASE\MODELERUI.OBJ|E:\PROJECTS\SCHOOL\CS-663\PROJECT1\CODE\RELEASE\MODELERVIEW.OBJ|E:\PROJECTS\SCHOOL\CS-663\PROJECT1\CODE\RELEASE\PLY.OBJ|E:\PROJECTS\SCHOOL\CS-663\PROJECT1\CODE\RELEASE\SAMPLE.OBJ|E:\PROJECTS\SCHOOL\CS-663\PROJECT1\CODE\RELEASE\TREE.OBJ
E:\PROJECTS\SCHOOL\CS-663\PROJECT1\CODE\RELEASE\MODELER.EXE
E:\PROJECTS\SCHOOL\CS-663\PROJECT1\CODE\RELEASE\MODELER.PDB
^E:\PROJECTS\SCHOOL\CS-663\PROJECT2\CODE\RELEASE\BITMAP.OBJ|E:\PROJECTS\SCHOOL\CS-663\PROJECT2\CODE\RELEASE\BOID.OBJ|E:\PROJECTS\SCHOOL\CS-663\PROJECT2\CODE\RELEASE\CAMERA.OBJ|E:\PROJECTS\SCHOOL\CS-663\PROJECT2\CODE\RELEASE\MODELERAPP.OBJ|E:\PROJECTS\SCHOOL\CS-663\PROJECT2\CODE\RELEASE\MODELERDRAW.OBJ|E:\PROJECTS\SCHOOL\CS-663\PROJECT2\CODE\RELEASE\MODELERUI.OBJ|E:\PROJECTS\SCHOOL\CS-663\PROJECT2\CODE\RELEASE\MODELERVIEW.OBJ|E:\PROJECTS\SCHOOL\CS-663\PROJECT2\CODE\RELEASE\SAMPLE.OBJ|E:\PROJECTS\SCHOOL\CS-663\PROJECT2\CODE\RELEASE\TREE.OBJ
E:\PROJECTS\SCHOOL\CS-663\PROJECT2\CODE\RELEASE\MODELER.EXE
E:\PROJECTS\SCHOOL\CS-663\PROJECT2\CODE\RELEASE\MODELER.PDB
