^E:\PROJECTS\SCHOOL\CS-663\PROJECT4\BITMAP.CPP
/c /ILOCAL\INCLUDE /ZI /nologo /W3 /WX- /diagnostics:column /Od /Oy- /D WIN32 /D _CONSOLE /D _VC80_UPGRADE=0x0600 /D _MBCS /Gm /EHsc /RTC1 /MD /GS /fp:precise /Zc:wchar_t /Zc:forScope /Zc:inline /Fo".\DEBUG/" /Fd".\DEBUG/VC143.PDB" /external:W3 /Gd /TP /analyze- /FC E:\PROJECTS\SCHOOL\CS-663\PROJECT4\BITMAP.CPP
^E:\PROJECTS\SCHOOL\CS-663\PROJECT4\CAMERA.CPP
/c /ILOCAL\INCLUDE /ZI /nologo /W3 /WX- /diagnostics:column /Od /Oy- /D WIN32 /D _CONSOLE /D _VC80_UPGRADE=0x0600 /D _MBCS /Gm /EHsc /RTC1 /MD /GS /fp:precise /Zc:wchar_t /Zc:forScope /Zc:inline /Fo".\DEBUG/" /Fd".\DEBUG/VC143.PDB" /external:W3 /Gd /TP /analyze- /FC E:\PROJECTS\SCHOOL\CS-663\PROJECT4\CAMERA.CPP
^E:\PROJECTS\SCHOOL\CS-663\PROJECT4\MAKEITHOME.CPP
/c /ILOCAL\INCLUDE /ZI /nologo /W3 /WX- /diagnostics:column /Od /Oy- /D WIN32 /D _CONSOLE /D _VC80_UPGRADE=0x0600 /D _MBCS /Gm /EHsc /RTC1 /MD /GS /fp:precise /Zc:wchar_t /Zc:forScope /Zc:inline /Fo".\DEBUG/" /Fd".\DEBUG/VC143.PDB" /external:W3 /Gd /TP /analyze- /FC E:\PROJECTS\SCHOOL\CS-663\PROJECT4\MAKEITHOME.CPP
^E:\PROJECTS\SCHOOL\CS-663\PROJECT4\MODELERAPP.CPP
/c /ILOCAL\INCLUDE /ZI /nologo /W3 /WX- /diagnostics:column /Od /Oy- /D WIN32 /D _CONSOLE /D _VC80_UPGRADE=0x0600 /D _MBCS /Gm /EHsc /RTC1 /MD /GS /fp:precise /Zc:wchar_t /Zc:forScope /Zc:inline /Fo".\DEBUG/" /Fd".\DEBUG/VC143.PDB" /external:W3 /Gd /TP /analyze- /FC E:\PROJECTS\SCHOOL\CS-663\PROJECT4\MODELERAPP.CPP
^E:\PROJECTS\SCHOOL\CS-663\PROJECT4\MODELERDRAW.CPP
/c /ILOCAL\INCLUDE /ZI /nologo /W3 /WX- /diagnostics:column /Od /Oy- /D WIN32 /D _CONSOLE /D _VC80_UPGRADE=0x0600 /D _MBCS /Gm /EHsc /RTC1 /MD /GS /fp:precise /Zc:wchar_t /Zc:forScope /Zc:inline /Fo".\DEBUG/" /Fd".\DEBUG/VC143.PDB" /external:W3 /Gd /TP /analyze- /FC E:\PROJECTS\SCHOOL\CS-663\PROJECT4\MODELERDRAW.CPP
^E:\PROJECTS\SCHOOL\CS-663\PROJECT4\MODELERUI.CXX
/c /ILOCAL\INCLUDE /ZI /nologo /W3 /WX- /diagnostics:column /Od /Oy- /D WIN32 /D _CONSOLE /D _VC80_UPGRADE=0x0600 /D _MBCS /Gm /EHsc /RTC1 /MD /GS /fp:precise /Zc:wchar_t /Zc:forScope /Zc:inline /Fo".\DEBUG/" /Fd".\DEBUG/VC143.PDB" /external:W3 /Gd /TP /analyze- /FC E:\PROJECTS\SCHOOL\CS-663\PROJECT4\MODELERUI.CXX
^E:\PROJECTS\SCHOOL\CS-663\PROJECT4\MODELERVIEW.CPP
/c /ILOCAL\INCLUDE /ZI /nologo /W3 /WX- /diagnostics:column /Od /Oy- /D WIN32 /D _CONSOLE /D _VC80_UPGRADE=0x0600 /D _MBCS /Gm /EHsc /RTC1 /MD /GS /fp:precise /Zc:wchar_t /Zc:forScope /Zc:inline /Fo".\DEBUG/" /Fd".\DEBUG/VC143.PDB" /external:W3 /Gd /TP /analyze- /FC E:\PROJECTS\SCHOOL\CS-663\PROJECT4\MODELERVIEW.CPP
^E:\PROJECTS\SCHOOL\CS-663\PROJECT4\SAMPLE.CPP
/c /ILOCAL\INCLUDE /ZI /nologo /W3 /WX- /diagnostics:column /Od /Oy- /D WIN32 /D _CONSOLE /D _VC80_UPGRADE=0x0600 /D _MBCS /Gm /EHsc /RTC1 /MD /GS /fp:precise /Zc:wchar_t /Zc:forScope /Zc:inline /Fo".\DEBUG/" /Fd".\DEBUG/VC143.PDB" /external:W3 /Gd /TP /analyze- /FC E:\PROJECTS\SCHOOL\CS-663\PROJECT4\SAMPLE.CPP
^E:\PROJECTS\SCHOOL\CS-663\PROJECT4\MCMC.CPP
/c /ILOCAL\INCLUDE /ZI /nologo /W3 /WX- /diagnostics:column /Od /Oy- /D WIN32 /D _CONSOLE /D _VC80_UPGRADE=0x0600 /D _MBCS /Gm /EHsc /RTC1 /MD /GS /fp:precise /Zc:wchar_t /Zc:forScope /Zc:inline /Fo".\DEBUG/" /Fd".\DEBUG/VC143.PDB" /external:W3 /Gd /TP /analyze- /FC E:\PROJECTS\SCHOOL\CS-663\PROJECT4\MCMC.CPP
