^E:\PROJECTS\SCHOOL\CS-663\PROJECT4\BITMAP.CPP|E:\PROJECTS\SCHOOL\CS-663\PROJECT4\CAMERA.CPP|E:\PROJECTS\SCHOOL\CS-663\PROJECT4\MCMC.CPP|E:\PROJECTS\SCHOOL\CS-663\PROJECT4\MODELERAPP.CPP|E:\PROJECTS\SCHOOL\CS-663\PROJECT4\MODELERDRAW.CPP|E:\PROJECTS\SCHOOL\CS-663\PROJECT4\MODELERUI.CXX|E:\PROJECTS\SCHOOL\CS-663\PROJECT4\MODELERVIEW.CPP|E:\PROJECTS\SCHOOL\CS-663\PROJECT4\SAMPLE.CPP
E:\PROJECTS\SCHOOL\CS-663\PROJECT4\RELEASE\VC143.PDB
E:\PROJECTS\SCHOOL\CS-663\PROJECT4\RELEASE\MCMC.OBJ
E:\PROJECTS\SCHOOL\CS-663\PROJECT4\RELEASE\SAMPLE.OBJ
E:\PROJECTS\SCHOOL\CS-663\PROJECT4\RELEASE\MODELERVIEW.OBJ
E:\PROJECTS\SCHOOL\CS-663\PROJECT4\RELEASE\MODELERUI.OBJ
E:\PROJECTS\SCHOOL\CS-663\PROJECT4\RELEASE\MODELERDRAW.OBJ
E:\PROJECTS\SCHOOL\CS-663\PROJECT4\RELEASE\MODELERAPP.OBJ
E:\PROJECTS\SCHOOL\CS-663\PROJECT4\RELEASE\CAMERA.OBJ
E:\PROJECTS\SCHOOL\CS-663\PROJECT4\RELEASE\BITMAP.OBJ
^E:\PROJECTS\SCHOOL\CS-663\PROJECT4\BITMAP.CPP
E:\PROJECTS\SCHOOL\CS-663\PROJECT4\RELEASE\VC143.PDB
^E:\PROJECTS\SCHOOL\CS-663\PROJECT4\CAMERA.CPP
E:\PROJECTS\SCHOOL\CS-663\PROJECT4\RELEASE\VC143.PDB
^E:\PROJECTS\SCHOOL\CS-663\PROJECT4\MODELERDRAW.CPP
E:\PROJECTS\SCHOOL\CS-663\PROJECT4\RELEASE\VC143.PDB
^E:\PROJECTS\SCHOOL\CS-663\PROJECT4\MAKEITHOME.CPP|E:\PROJECTS\SCHOOL\CS-663\PROJECT4\MODELERUI.CXX|E:\PROJECTS\SCHOOL\CS-663\PROJECT4\MODELERVIEW.CPP|E:\PROJECTS\SCHOOL\CS-663\PROJECT4\SAMPLE.CPP
E:\PROJECTS\SCHOOL\CS-663\PROJECT4\RELEASE\VC143.PDB
E:\PROJECTS\SCHOOL\CS-663\PROJECT4\RELEASE\MODELERVIEW.OBJ
E:\PROJECTS\SCHOOL\CS-663\PROJECT4\RELEASE\MODELERUI.OBJ
E:\PROJECTS\SCHOOL\CS-663\PROJECT4\RELEASE\MAKEITHOME.OBJ
^E:\PROJECTS\SCHOOL\CS-663\PROJECT4\MAKEITHOME.CPP|E:\PROJECTS\SCHOOL\CS-663\PROJECT4\SAMPLE.CPP
E:\PROJECTS\SCHOOL\CS-663\PROJECT4\RELEASE\VC143.PDB
E:\PROJECTS\SCHOOL\CS-663\PROJECT4\RELEASE\SAMPLE.OBJ
E:\PROJECTS\SCHOOL\CS-663\PROJECT4\RELEASE\MAKEITHOME.OBJ
^E:\PROJECTS\SCHOOL\CS-663\PROJECT4\MAKEITHOME.CPP|E:\PROJECTS\SCHOOL\CS-663\PROJECT4\MODELERVIEW.CPP|E:\PROJECTS\SCHOOL\CS-663\PROJECT4\SAMPLE.CPP
E:\PROJECTS\SCHOOL\CS-663\PROJECT4\RELEASE\VC143.PDB
E:\PROJECTS\SCHOOL\CS-663\PROJECT4\RELEASE\SAMPLE.OBJ
E:\PROJECTS\SCHOOL\CS-663\PROJECT4\RELEASE\MODELERVIEW.OBJ
E:\PROJECTS\SCHOOL\CS-663\PROJECT4\RELEASE\MAKEITHOME.OBJ
^E:\PROJECTS\SCHOOL\CS-663\PROJECT4\MAKEITHOME.CPP|E:\PROJECTS\SCHOOL\CS-663\PROJECT4\MODELERAPP.CPP|E:\PROJECTS\SCHOOL\CS-663\PROJECT4\MODELERUI.CXX
E:\PROJECTS\SCHOOL\CS-663\PROJECT4\RELEASE\VC143.PDB
E:\PROJECTS\SCHOOL\CS-663\PROJECT4\RELEASE\MODELERUI.OBJ
E:\PROJECTS\SCHOOL\CS-663\PROJECT4\RELEASE\MODELERAPP.OBJ
E:\PROJECTS\SCHOOL\CS-663\PROJECT4\RELEASE\MAKEITHOME.OBJ
^E:\PROJECTS\SCHOOL\CS-663\PROJECT4\MAKEITHOME.CPP
E:\PROJECTS\SCHOOL\CS-663\PROJECT4\RELEASE\VC143.PDB
^E:\PROJECTS\SCHOOL\CS-663\PROJECT4\MODELERUI.CXX|E:\PROJECTS\SCHOOL\CS-663\PROJECT4\SAMPLE.CPP
E:\PROJECTS\SCHOOL\CS-663\PROJECT4\RELEASE\VC143.PDB
E:\PROJECTS\SCHOOL\CS-663\PROJECT4\RELEASE\SAMPLE.OBJ
E:\PROJECTS\SCHOOL\CS-663\PROJECT4\RELEASE\MODELERUI.OBJ
^E:\PROJECTS\SCHOOL\CS-663\PROJECT4\MCMC.CPP|E:\PROJECTS\SCHOOL\CS-663\PROJECT4\MODELERAPP.CPP|E:\PROJECTS\SCHOOL\CS-663\PROJECT4\MODELERUI.CXX|E:\PROJECTS\SCHOOL\CS-663\PROJECT4\MODELERVIEW.CPP|E:\PROJECTS\SCHOOL\CS-663\PROJECT4\SAMPLE.CPP
E:\PROJECTS\SCHOOL\CS-663\PROJECT4\RELEASE\VC143.PDB
E:\PROJECTS\SCHOOL\CS-663\PROJECT4\RELEASE\SAMPLE.OBJ
E:\PROJECTS\SCHOOL\CS-663\PROJECT4\RELEASE\MODELERVIEW.OBJ
E:\PROJECTS\SCHOOL\CS-663\PROJECT4\RELEASE\MODELERUI.OBJ
E:\PROJECTS\SCHOOL\CS-663\PROJECT4\RELEASE\MODELERAPP.OBJ
E:\PROJECTS\SCHOOL\CS-663\PROJECT4\RELEASE\MCMC.OBJ
^E:\PROJECTS\SCHOOL\CS-663\PROJECT4\MCMC.CPP
E:\PROJECTS\SCHOOL\CS-663\PROJECT4\RELEASE\VC143.PDB
^E:\PROJECTS\SCHOOL\CS-663\PROJECT4\MODELERAPP.CPP
E:\PROJECTS\SCHOOL\CS-663\PROJECT4\RELEASE\VC143.PDB
^E:\PROJECTS\SCHOOL\CS-663\PROJECT4\MODELERVIEW.CPP
E:\PROJECTS\SCHOOL\CS-663\PROJECT4\RELEASE\VC143.PDB
^E:\PROJECTS\SCHOOL\CS-663\PROJECT4\MODELERUI.CXX
E:\PROJECTS\SCHOOL\CS-663\PROJECT4\RELEASE\VC143.PDB
E:\PROJECTS\SCHOOL\CS-663\PROJECT4\RELEASE\MODELERUI.OBJ
^E:\PROJECTS\SCHOOL\CS-663\PROJECT4\SAMPLE.CPP
E:\PROJECTS\SCHOOL\CS-663\PROJECT4\RELEASE\VC143.PDB
E:\PROJECTS\SCHOOL\CS-663\PROJECT4\RELEASE\SAMPLE.OBJ
