^E:\PROJECTS\SCHOOL\CS-663\PROJECT4\RELEASE\BITMAP.OBJ|E:\PROJECTS\SCHOOL\CS-663\PROJECT4\RELEASE\CAMERA.OBJ|E:\PROJECTS\SCHOOL\CS-663\PROJECT4\RELEASE\MAKEITHOME.OBJ|E:\PROJECTS\SCHOOL\CS-663\PROJECT4\RELEASE\MCMC.OBJ|E:\PROJECTS\SCHOOL\CS-663\PROJECT4\RELEASE\MODELERAPP.OBJ|E:\PROJECTS\SCHOOL\CS-663\PROJECT4\RELEASE\MODELERDRAW.OBJ|E:\PROJECTS\SCHOOL\CS-663\PROJECT4\RELEASE\MODELERUI.OBJ|E:\PROJECTS\SCHOOL\CS-663\PROJECT4\RELEASE\MODELERVIEW.OBJ|E:\PROJECTS\SCHOOL\CS-663\PROJECT4\RELEASE\SAMPLE.OBJ
E:\PROJECTS\SCHOOL\CS-663\PROJECT4\RELEASE\MODELER.EXE
E:\PROJECTS\SCHOOL\CS-663\PROJECT4\RELEASE\MODELER.PDB
