^E:\PROJECTS\SCHOOL\CS-663\PROJECT4\RELEASE\BITMAP.OBJ|E:\PROJECTS\SCHOOL\CS-663\PROJECT4\RELEASE\CAMERA.OBJ|E:\PROJECTS\SCHOOL\CS-663\PROJECT4\RELEASE\MAKEITHOME.OBJ|E:\PROJECTS\SCHOOL\CS-663\PROJECT4\RELEASE\MCMC.OBJ|E:\PROJECTS\SCHOOL\CS-663\PROJECT4\RELEASE\MODELERAPP.OBJ|E:\PROJECTS\SCHOOL\CS-663\PROJECT4\RELEASE\MODELERDRAW.OBJ|E:\PROJECTS\SCHOOL\CS-663\PROJECT4\RELEASE\MODELERUI.OBJ|E:\PROJECTS\SCHOOL\CS-663\PROJECT4\RELEASE\MODELERVIEW.OBJ|E:\PROJECTS\SCHOOL\CS-663\PROJECT4\RELEASE\SAMPLE.OBJ
E:\PROJECTS\SCHOOL\CS-663\PROJECT4\LOCAL\LIB\FLTK.LIB
C:\PROGRAM FILES (X86)\WINDOWS KITS\10\LIB\10.0.19041.0\UM\X86\WSOCK32.LIB
C:\PROGRAM FILES (X86)\WINDOWS KITS\10\LIB\10.0.19041.0\UM\X86\OPENGL32.LIB
C:\PROGRAM FILES (X86)\WINDOWS KITS\10\LIB\10.0.19041.0\UM\X86\GLU32.LIB
C:\PROGRAM FILES (X86)\WINDOWS KITS\10\LIB\10.0.19041.0\UM\X86\ODBC32.LIB
C:\PROGRAM FILES (X86)\WINDOWS KITS\10\LIB\10.0.19041.0\UM\X86\ODBCCP32.LIB
E:\PROJECTS\SCHOOL\CS-663\PROJECT4\LOCAL\LIB\FLTKGL.LIB
C:\PROGRAM FILES (X86)\WINDOWS KITS\10\LIB\10.0.19041.0\UM\X86\KERNEL32.LIB
C:\PROGRAM FILES (X86)\WINDOWS KITS\10\LIB\10.0.19041.0\UM\X86\USER32.LIB
C:\PROGRAM FILES (X86)\WINDOWS KITS\10\LIB\10.0.19041.0\UM\X86\GDI32.LIB
C:\PROGRAM FILES (X86)\WINDOWS KITS\10\LIB\10.0.19041.0\UM\X86\WINSPOOL.LIB
C:\PROGRAM FILES (X86)\WINDOWS KITS\10\LIB\10.0.19041.0\UM\X86\COMDLG32.LIB
C:\PROGRAM FILES (X86)\WINDOWS KITS\10\LIB\10.0.19041.0\UM\X86\ADVAPI32.LIB
C:\PROGRAM FILES (X86)\WINDOWS KITS\10\LIB\10.0.19041.0\UM\X86\SHELL32.LIB
C:\PROGRAM FILES (X86)\WINDOWS KITS\10\LIB\10.0.19041.0\UM\X86\OLE32.LIB
C:\PROGRAM FILES (X86)\WINDOWS KITS\10\LIB\10.0.19041.0\UM\X86\OLEAUT32.LIB
C:\PROGRAM FILES (X86)\WINDOWS KITS\10\LIB\10.0.19041.0\UM\X86\UUID.LIB
E:\PROJECTS\SCHOOL\CS-663\PROJECT4\RELEASE\BITMAP.OBJ
E:\PROJECTS\SCHOOL\CS-663\PROJECT4\RELEASE\CAMERA.OBJ
E:\PROJECTS\SCHOOL\CS-663\PROJECT4\RELEASE\MAKEITHOME.OBJ
E:\PROJECTS\SCHOOL\CS-663\PROJECT4\RELEASE\MODELERAPP.OBJ
E:\PROJECTS\SCHOOL\CS-663\PROJECT4\RELEASE\MODELERDRAW.OBJ
E:\PROJECTS\SCHOOL\CS-663\PROJECT4\RELEASE\MODELERUI.OBJ
E:\PROJECTS\SCHOOL\CS-663\PROJECT4\RELEASE\MODELERVIEW.OBJ
E:\PROJECTS\SCHOOL\CS-663\PROJECT4\RELEASE\SAMPLE.OBJ
E:\PROJECTS\SCHOOL\CS-663\PROJECT4\RELEASE\MCMC.OBJ
C:\WINDOWS\GLOBALIZATION\SORTING\SORTDEFAULT.NLS
C:\PROGRAM FILES\MICROSOFT VISUAL STUDIO\2022\COMMUNITY\VC\TOOLS\MSVC\14.30.30705\LIB\X86\MSVCPRTD.LIB
C:\PROGRAM FILES\MICROSOFT VISUAL STUDIO\2022\COMMUNITY\VC\TOOLS\MSVC\14.30.30705\LIB\X86\MSVCRTD.LIB
C:\PROGRAM FILES\MICROSOFT VISUAL STUDIO\2022\COMMUNITY\VC\TOOLS\MSVC\14.30.30705\LIB\X86\OLDNAMES.LIB
C:\PROGRAM FILES (X86)\WINDOWS KITS\10\LIB\10.0.19041.0\UM\X86\COMCTL32.LIB
C:\PROGRAM FILES\MICROSOFT VISUAL STUDIO\2022\COMMUNITY\VC\TOOLS\MSVC\14.30.30705\LIB\X86\MSVCRT.LIB
C:\PROGRAM FILES\MICROSOFT VISUAL STUDIO\2022\COMMUNITY\VC\TOOLS\MSVC\14.30.30705\LIB\X86\VCRUNTIMED.LIB
C:\PROGRAM FILES (X86)\WINDOWS KITS\10\LIB\10.0.19041.0\UCRT\X86\UCRTD.LIB
C:\PROGRAM FILES\MICROSOFT VISUAL STUDIO\2022\COMMUNITY\VC\TOOLS\MSVC\14.30.30705\BIN\HOSTX86\X86\1033\LINKUI.DLL
C:\PROGRAM FILES\MICROSOFT VISUAL STUDIO\2022\COMMUNITY\VC\TOOLS\MSVC\14.30.30705\BIN\HOSTX86\X86\CVTRES.EXE
C:\WINDOWS\SYSTEM32\TZRES.DLL
