^E:\PROJECTS\SCHOOL\CS-663\PROJECT1\RELEASE\BITMAP.OBJ|E:\PROJECTS\SCHOOL\CS-663\PROJECT1\RELEASE\CAMERA.OBJ|E:\PROJECTS\SCHOOL\CS-663\PROJECT1\RELEASE\MODELERAPP.OBJ|E:\PROJECTS\SCHOOL\CS-663\PROJECT1\RELEASE\MODELERDRAW.OBJ|E:\PROJECTS\SCHOOL\CS-663\PROJECT1\RELEASE\MODELERUI.OBJ|E:\PROJECTS\SCHOOL\CS-663\PROJECT1\RELEASE\MODELERVIEW.OBJ|E:\PROJECTS\SCHOOL\CS-663\PROJECT1\RELEASE\PLY.OBJ|E:\PROJECTS\SCHOOL\CS-663\PROJECT1\RELEASE\SAMPLE.OBJ|E:\PROJECTS\SCHOOL\CS-663\PROJECT1\RELEASE\TREE.OBJ
/OUT:".\RELEASE/MODELER.EXE" /INCREMENTAL:NO /NOLOGO LOCAL/LIB/FLTK.LIB WSOCK32.LIB OPENGL32.LIB GLU32.LIB ODBC32.LIB ODBCCP32.LIB LOCAL/LIB/FLTKGL.LIB KERNEL32.LIB USER32.LIB GDI32.LIB WINSPOOL.LIB COMDLG32.LIB ADVAPI32.LIB SHELL32.LIB OLE32.LIB OLEAUT32.LIB UUID.LIB ODBC32.LIB ODBCCP32.LIB /MANIFEST /MANIFESTUAC:"level='asInvoker' uiAccess='false'" /manifest:embed /DEBUG:FULL /PDB:".\RELEASE/MODELER.PDB" /SUBSYSTEM:WINDOWS /TLBID:1 /DYNAMICBASE:NO /IMPLIB:".\RELEASE\MODELER.LIB" /MACHINE:X86 /SAFESEH .\RELEASE/BITMAP.OBJ
.\RELEASE/CAMERA.OBJ
.\RELEASE/MODELERAPP.OBJ
.\RELEASE/MODELERDRAW.OBJ
.\RELEASE/MODELERUI.OBJ
.\RELEASE/MODELERVIEW.OBJ
.\RELEASE/PLY.OBJ
.\RELEASE/SAMPLE.OBJ
.\RELEASE/TREE.OBJ
^E:\PROJECTS\SCHOOL\CS-663\PROJECT1\CODE\RELEASE\BITMAP.OBJ|E:\PROJECTS\SCHOOL\CS-663\PROJECT1\CODE\RELEASE\CAMERA.OBJ|E:\PROJECTS\SCHOOL\CS-663\PROJECT1\CODE\RELEASE\MODELERAPP.OBJ|E:\PROJECTS\SCHOOL\CS-663\PROJECT1\CODE\RELEASE\MODELERDRAW.OBJ|E:\PROJECTS\SCHOOL\CS-663\PROJECT1\CODE\RELEASE\MODELERUI.OBJ|E:\PROJECTS\SCHOOL\CS-663\PROJECT1\CODE\RELEASE\MODELERVIEW.OBJ|E:\PROJECTS\SCHOOL\CS-663\PROJECT1\CODE\RELEASE\PLY.OBJ|E:\PROJECTS\SCHOOL\CS-663\PROJECT1\CODE\RELEASE\SAMPLE.OBJ|E:\PROJECTS\SCHOOL\CS-663\PROJECT1\CODE\RELEASE\TREE.OBJ
/OUT:".\RELEASE/MODELER.EXE" /INCREMENTAL:NO /NOLOGO LOCAL/LIB/FLTK.LIB WSOCK32.LIB OPENGL32.LIB GLU32.LIB ODBC32.LIB ODBCCP32.LIB LOCAL/LIB/FLTKGL.LIB KERNEL32.LIB USER32.LIB GDI32.LIB WINSPOOL.LIB COMDLG32.LIB ADVAPI32.LIB SHELL32.LIB OLE32.LIB OLEAUT32.LIB UUID.LIB ODBC32.LIB ODBCCP32.LIB /MANIFEST /MANIFESTUAC:"level='asInvoker' uiAccess='false'" /manifest:embed /DEBUG:FULL /PDB:".\RELEASE/MODELER.PDB" /SUBSYSTEM:WINDOWS /TLBID:1 /DYNAMICBASE:NO /IMPLIB:".\RELEASE\MODELER.LIB" /MACHINE:X86 /SAFESEH .\RELEASE/BITMAP.OBJ
.\RELEASE/CAMERA.OBJ
.\RELEASE/MODELERAPP.OBJ
.\RELEASE/MODELERDRAW.OBJ
.\RELEASE/MODELERUI.OBJ
.\RELEASE/MODELERVIEW.OBJ
.\RELEASE/PLY.OBJ
.\RELEASE/SAMPLE.OBJ
.\RELEASE/TREE.OBJ
