ittr, dist, rot, total, best 
0, 7.649111, 291.000000, 298.649109, 298.649109 
1, 8.416408, 291.000000, 299.416412, 298.649109 
2, 8.416408, 306.000000, 314.416412, 298.649109 
3, 9.422205, 306.000000, 315.422211, 298.649109 
4, 8.416408, 306.000000, 314.416412, 298.649109 
5, 10.231546, 306.000000, 316.231537, 298.649109 
6, 12.088007, 306.000000, 318.088013, 298.649109 
7, 12.088007, 321.000000, 333.088013, 298.649109 
8, 12.088007, 306.000000, 318.088013, 298.649109 
9, 12.888544, 306.000000, 318.888550, 298.649109 
10, 12.088007, 306.000000, 318.088013, 298.649109 
11, 12.088007, 291.000000, 303.088013, 298.649109 
12, 13.027756, 291.000000, 304.027771, 298.649109 
13, 13.027756, 306.000000, 319.027771, 298.649109 
14, 13.027756, 291.000000, 304.027771, 298.649109 
15, 13.027756, 291.000000, 304.027771, 298.649109 
16, 11.155495, 291.000000, 302.155487, 298.649109 
17, 13.027756, 291.000000, 304.027771, 298.649109 
18, 13.027756, 291.000000, 304.027771, 298.649109 
19, 13.027756, 291.000000, 304.027771, 298.649109 
20, 13.973665, 291.000000, 304.973663, 298.649109 
21, 13.973665, 276.000000, 289.973663, 289.973663 
22, 13.439089, 276.000000, 289.439087, 289.439087 
23, 13.439089, 261.000000, 274.439087, 274.439087 
24, 13.439089, 246.000000, 259.439087, 259.439087 
25, 13.439089, 261.000000, 274.439087, 259.439087 
26, 13.439089, 246.000000, 259.439087, 259.439087 
27, 13.973665, 246.000000, 259.973663, 259.439087 
28, 13.973665, 261.000000, 274.973663, 259.439087 
29, 13.973665, 276.000000, 289.973663, 259.439087 
30, 13.439089, 276.000000, 289.439087, 259.439087 
31, 13.439089, 291.000000, 304.439087, 259.439087 
32, 13.973665, 291.000000, 304.973663, 259.439087 
33, 14.697716, 291.000000, 305.697693, 259.439087 
34, 13.973665, 291.000000, 304.973663, 259.439087 
35, 14.697716, 291.000000, 305.697693, 259.439087 
36, 12.888544, 291.000000, 303.888550, 259.439087 
37, 12.888544, 306.000000, 318.888550, 259.439087 
38, 12.088007, 306.000000, 318.088013, 259.439087 
39, 12.088007, 321.000000, 333.088013, 259.439087 
40, 12.088007, 306.000000, 318.088013, 259.439087 
41, 10.231546, 306.000000, 316.231537, 259.439087 
42, 9.560220, 306.000000, 315.560211, 259.439087 
43, 9.560220, 291.000000, 300.560211, 259.439087 
44, 9.142136, 291.000000, 300.142151, 259.439087 
45, 9.142136, 306.000000, 315.142151, 259.439087 
46, 9.000000, 306.000000, 315.000000, 259.439087 
47, 9.000000, 321.000000, 330.000000, 259.439087 
48, 9.000000, 336.000000, 345.000000, 259.439087 
49, 7.000000, 336.000000, 343.000000, 259.439087 
50, 7.000000, 321.000000, 328.000000, 259.439087 
51, 7.000000, 306.000000, 313.000000, 259.439087 
52, 7.000000, 321.000000, 328.000000, 259.439087 
53, 7.000000, 306.000000, 313.000000, 259.439087 
54, 5.000000, 306.000000, 311.000000, 259.439087 
55, 5.198039, 306.000000, 311.198059, 259.439087 
56, 5.198039, 291.000000, 296.198059, 259.439087 
57, 5.198039, 276.000000, 281.198059, 259.439087 
58, 5.198039, 261.619873, 266.817902, 259.439087 
59, 5.198039, 246.619873, 251.817902, 251.817902 
60, 5.770329, 267.602783, 273.373138, 251.817902 
61, 6.661903, 285.927490, 292.589417, 251.817902 
62, 6.661903, 300.927490, 307.589417, 251.817902 
63, 6.661903, 285.927490, 292.589417, 251.817902 
64, 8.416408, 277.130127, 285.546509, 251.817902 
65, 10.231546, 270.397217, 280.628754, 251.817902 
66, 12.088007, 265.112061, 277.200073, 251.817902 
67, 12.088007, 280.112061, 292.200073, 251.817902 
68, 12.888544, 292.130127, 305.018646, 251.817902 
69, 12.888544, 307.130127, 320.018646, 251.817902 
70, 12.888544, 322.130127, 335.018646, 251.817902 
71, 12.088007, 310.112061, 322.200073, 251.817902 
72, 12.088007, 325.112061, 337.200073, 251.817902 
73, 11.492422, 312.072510, 323.564941, 251.817902 
74, 12.088007, 325.112061, 337.200073, 251.817902 
75, 12.088007, 325.112061, 337.200073, 251.817902 
76, 12.088007, 310.112061, 322.200073, 251.817902 
77, 12.088007, 325.112061, 337.200073, 251.817902 
78, 13.973665, 320.869873, 334.843567, 251.817902 
79, 13.973665, 320.869873, 334.843567, 251.817902 
80, 13.973665, 99.000015, 112.973679, 112.973679 
81, 13.973665, 84.000015, 97.973679, 97.973679 
82, 13.439089, 84.000000, 97.439087, 97.439087 
83, 13.439089, 84.000000, 97.439087, 97.439087 
84, 13.439089, 84.000000, 97.439087, 97.439087 
85, 13.439089, 99.000000, 112.439087, 97.439087 
86, 13.110771, 99.000015, 112.110786, 97.439087 
87, 13.110771, 84.000015, 97.110786, 97.110786 
88, 13.110771, 84.000015, 97.110786, 97.110786 
89, 13.110771, 99.000015, 112.110786, 97.110786 
90, 13.439089, 99.000000, 112.439087, 97.110786 
91, 13.973665, 99.000015, 112.973679, 97.110786 
92, 14.697716, 98.999992, 113.697708, 97.110786 
93, 13.973665, 99.000015, 112.973679, 97.110786 
94, 13.973665, 84.000015, 97.973679, 97.110786 
95, 13.973665, 84.000015, 97.973679, 97.110786 
96, 13.439089, 84.000000, 97.439087, 97.110786 
97, 13.973665, 84.000015, 97.973679, 97.110786 
98, 13.973665, 84.000015, 97.973679, 97.110786 
99, 14.697716, 83.999992, 98.697708, 97.110786 
100, 14.697716, 98.999992, 113.697708, 97.110786 
101, 12.888544, 98.999985, 111.888527, 97.110786 
102, 12.888544, 83.999985, 96.888527, 96.888527 
103, 12.888544, 83.999985, 96.888527, 96.888527 
104, 12.888544, 98.999985, 111.888527, 96.888527 
105, 12.888544, 113.999985, 126.888527, 96.888527 
106, 12.888544, 128.999985, 141.888519, 96.888527 
107, 12.888544, 113.999985, 126.888527, 96.888527 
108, 11.124516, 114.000008, 125.124527, 96.888527 
109, 11.124516, 99.000008, 110.124527, 96.888527 
110, 11.124516, 114.000008, 125.124527, 96.888527 
111, 11.124516, 129.000000, 140.124527, 96.888527 
112, 10.231546, 128.999985, 139.231537, 96.888527 
113, 10.231546, 113.999985, 124.231529, 96.888527 
114, 10.231546, 98.999985, 109.231529, 96.888527 
115, 8.416408, 98.999985, 107.416389, 96.888527 
116, 8.416408, 113.999985, 122.416389, 96.888527 
117, 8.416408, 98.999985, 107.416397, 96.888527 
118, 8.416408, 337.130127, 345.546509, 96.888527 
119, 9.422205, 351.380127, 360.802338, 96.888527 
120, 10.620500, 363.611145, 374.231628, 96.888527 
121, 10.620500, 348.611145, 359.231628, 96.888527 
122, 10.620500, 333.611145, 344.231628, 96.888527 
123, 10.620500, 348.611145, 359.231628, 96.888527 
124, 10.620500, 84.000000, 94.620499, 94.620499 
125, 12.204651, 83.999985, 96.204636, 94.620499 
126, 12.204651, 68.999985, 81.204636, 81.204636 
127, 13.867962, 69.000015, 82.867981, 81.204636 
128, 12.888544, 68.999985, 81.888527, 81.204636 
129, 13.867962, 69.000015, 82.867981, 81.204636 
130, 13.867962, 84.000015, 97.867981, 81.204636 
131, 13.867962, 69.000015, 82.867981, 81.204636 
132, 13.867962, 54.000015, 67.867981, 67.867981 
133, 13.867962, 39.000015, 52.867977, 52.867977 
134, 13.867962, 39.000015, 52.867977, 52.867977 
135, 13.867962, 41.989243, 55.857204, 52.867977 
136, 13.867962, 56.989243, 70.857208, 52.867977 
137, 12.888544, 67.869888, 80.758430, 52.867977 
138, 12.088007, 79.887924, 91.975929, 52.867977 
139, 12.088007, 306.000000, 318.087982, 52.867977 
140, 12.088007, 321.000000, 333.087982, 52.867977 
141, 12.088007, 94.887924, 106.975929, 52.867977 
142, 12.888544, 82.869888, 95.758430, 52.867977 
143, 12.888544, 97.869888, 110.758430, 52.867977 
144, 12.888544, 82.869888, 95.758430, 52.867977 
145, 12.888544, 67.869888, 80.758430, 52.867977 
146, 14.697716, 73.075020, 87.772736, 52.867977 
147, 13.973665, 84.130112, 98.103775, 52.867977 
148, 13.973665, 69.130112, 83.103775, 52.867977 
149, 12.088007, 64.887924, 76.975929, 52.867977 
150, 12.088007, 64.887924, 76.975929, 52.867977 
151, 12.088007, 49.887924, 61.975929, 52.867977 
152, 12.088007, 64.887924, 76.975929, 52.867977 
153, 12.888544, 52.869888, 65.758430, 52.867977 
154, 12.888544, 37.869888, 50.758430, 50.758430 
155, 12.888544, 52.869888, 65.758430, 50.758430 
156, 12.888544, 52.869888, 65.758430, 50.758430 
157, 12.888544, 67.869888, 80.758430, 50.758430 
158, 13.867962, 56.989243, 70.857208, 50.758430 
159, 13.867962, 56.989243, 70.857208, 50.758430 
160, 13.867962, 71.989243, 85.857208, 50.758430 
161, 13.867962, 56.989243, 70.857208, 50.758430 
162, 12.204651, 49.924637, 62.129288, 50.758430 
163, 12.204651, 34.924637, 47.129288, 47.129288 
164, 12.204651, 19.924637, 32.129288, 32.129288 
165, 11.124516, 31.510246, 42.634762, 32.129288 
166, 11.124516, 16.510246, 27.634762, 27.634762 
167, 11.124516, 31.510246, 42.634762, 27.634762 
168, 11.124516, 16.510246, 27.634762, 27.634762 
169, 11.124516, 9.000008, 20.124523, 20.124523 
170, 12.888544, 8.999985, 21.888529, 20.124523 
171, 12.888544, 22.869888, 35.758430, 20.124523 
172, 12.888544, 8.999985, 21.888529, 20.124523 
173, 12.888544, 23.999985, 36.888527, 20.124523 
174, 11.124516, 24.000008, 35.124523, 20.124523 
175, 11.124516, 39.000008, 50.124523, 20.124523 
176, 12.204651, 40.075363, 52.280014, 20.124523 
177, 10.620500, 48.611145, 59.231644, 20.124523 
178, 10.620500, 63.611145, 74.231644, 20.124523 
179, 10.620500, 78.611145, 89.231644, 20.124523 
180, 10.620500, 93.611145, 104.231644, 20.124523 
181, 9.422205, 81.380127, 90.802330, 20.124523 
182, 9.422205, 66.380127, 75.802330, 20.124523 
183, 9.422205, 66.380127, 75.802330, 20.124523 
184, 10.620500, 78.611145, 89.231644, 20.124523 
185, 9.142136, 89.000000, 98.142136, 20.124523 
186, 9.142136, 74.000000, 83.142136, 20.124523 
187, 10.620500, 84.388855, 95.009354, 20.124523 
188, 11.970562, 74.000000, 85.970566, 20.124523 
189, 11.970562, 69.000000, 80.970566, 20.124523 
190, 11.970562, 84.000000, 95.970566, 20.124523 
191, 11.970562, 99.000000, 110.970566, 20.124523 
192, 11.970562, 84.000000, 95.970566, 20.124523 
193, 10.620500, 84.000000, 94.620499, 20.124523 
194, 10.620500, 99.000000, 109.620499, 20.124523 
195, 10.620500, 114.000000, 124.620499, 20.124523 
196, 9.142136, 114.000000, 123.142136, 20.124523 
197, 9.142136, 114.000000, 123.142136, 20.124523 
198, 9.142136, 389.000000, 398.142151, 20.124523 
199, 7.806249, 401.680359, 409.486633, 20.124523 
200, 7.806249, 114.000015, 121.806267, 20.124523 
201, 7.806249, 99.000015, 106.806267, 20.124523 
202, 7.806249, 386.680359, 394.486633, 20.124523 
203, 9.422205, 396.619873, 406.042084, 20.124523 
204, 9.422205, 381.619873, 391.042084, 20.124523 
205, 9.422205, 396.619873, 406.042084, 20.124523 
206, 10.620500, 384.388855, 395.009338, 20.124523 
207, 12.204651, 392.924622, 405.129272, 20.124523 
208, 13.439089, 382.797424, 396.236511, 20.124523 
209, 13.439089, 367.797424, 381.236511, 20.124523 
210, 13.439089, 352.797424, 366.236511, 20.124523 
211, 11.970562, 344.000000, 355.970551, 20.124523 
212, 11.970562, 329.000000, 340.970551, 20.124523 
213, 10.620500, 339.388855, 350.009338, 20.124523 
214, 10.620500, 324.388855, 335.009338, 20.124523 
215, 10.620500, 309.388855, 320.009338, 20.124523 
216, 9.422205, 321.619873, 331.042084, 20.124523 
217, 7.806249, 311.680359, 319.486633, 20.124523 
218, 7.806249, 326.680359, 334.486633, 20.124523 
219, 7.806249, 311.680359, 319.486633, 20.124523 
220, 7.806249, 326.680359, 334.486633, 20.124523 
221, 7.806249, 311.680359, 319.486633, 20.124523 
222, 6.661903, 327.072510, 333.734406, 20.124523 
223, 6.661903, 342.072510, 348.734406, 20.124523 
224, 6.661903, 327.072510, 333.734406, 20.124523 
225, 8.416408, 335.869873, 344.286285, 20.124523 
226, 10.231546, 342.602844, 352.834381, 20.124523 
227, 10.231546, 357.602844, 367.834381, 20.124523 
228, 11.124516, 344.510254, 355.634766, 20.124523 
229, 12.204651, 332.924622, 345.129272, 20.124523 
230, 12.204651, 347.924622, 360.129272, 20.124523 
231, 12.204651, 347.924622, 360.129272, 20.124523 
232, 12.204651, 332.924622, 345.129272, 20.124523 
233, 11.124516, 344.510254, 355.634766, 20.124523 
234, 11.124516, 359.510254, 370.634766, 20.124523 
235, 11.124516, 359.510254, 370.634766, 20.124523 
236, 11.124516, 374.510254, 385.634766, 20.124523 
237, 11.124516, 359.510254, 370.634766, 20.124523 
238, 9.422205, 351.619873, 361.042084, 20.124523 
239, 9.422205, 366.619873, 376.042084, 20.124523 
240, 9.422205, 351.619873, 361.042084, 20.124523 
241, 9.422205, 366.619873, 376.042084, 20.124523 
242, 9.422205, 351.619873, 361.042084, 20.124523 
243, 11.124516, 359.510254, 370.634766, 20.124523 
244, 12.888544, 365.869873, 378.758423, 20.124523 
245, 14.697716, 371.075012, 385.772736, 20.124523 
246, 14.697716, 356.075012, 370.772736, 20.124523 
247, 14.697716, 39.000000, 53.697716, 20.124523 
248, 12.888544, 39.000015, 51.888557, 20.124523 
249, 12.888544, 350.869873, 363.758423, 20.124523 
250, 11.124516, 344.510254, 355.634766, 20.124523 
251, 12.888544, 350.869873, 363.758423, 20.124523 
252, 12.888544, 365.869873, 378.758423, 20.124523 
253, 12.088007, 377.887909, 389.975922, 20.124523 
254, 12.888544, 365.869873, 378.758423, 20.124523 
255, 12.888544, 365.869873, 378.758423, 20.124523 
256, 12.888544, 380.869873, 393.758423, 20.124523 
257, 12.888544, 395.869873, 408.758423, 20.124523 
258, 12.888544, 380.869873, 393.758423, 20.124523 
259, 12.888544, 365.869873, 378.758423, 20.124523 
260, 12.888544, 380.869873, 393.758423, 20.124523 
261, 12.888544, 365.869873, 378.758423, 20.124523 
262, 14.697716, 371.075012, 385.772736, 20.124523 
263, 14.697716, 386.075012, 400.772736, 20.124523 
264, 13.973665, 397.130127, 411.103760, 20.124523 
265, 12.088007, 392.887909, 404.975922, 20.124523 
266, 11.492422, 405.927490, 417.419922, 20.124523 
267, 9.560220, 402.109192, 411.669403, 20.124523 
268, 7.649111, 397.130127, 404.779236, 20.124523 
269, 9.560220, 402.109192, 411.669403, 20.124523 
270, 9.560220, 417.109192, 426.669403, 20.124523 
271, 7.649111, 412.130127, 419.779236, 20.124523 
272, 7.649111, 427.130127, 434.779236, 20.124523 
273, 5.770329, 420.397186, 426.167511, 20.124523 
274, 3.944272, 410.869873, 414.814148, 20.124523 
275, 3.246211, 435.927490, 439.173706, 20.124523 
276, 3.246211, 450.927490, 454.173706, 20.124523 
277, 3.000000, 159.000000, 162.000000, 20.124523 
278, 1.000000, 159.000000, 160.000000, 20.124523 
279, 1.324555, 442.130127, 443.454651, 20.124523 
280, 0.527864, 425.869873, 426.397766, 20.124523 
281, 0.527864, 440.869873, 441.397766, 20.124523 
282, 0.527864, 440.869873, 441.397766, 20.124523 
283, 1.000000, 174.000000, 175.000000, 20.124523 
284, 1.000000, 159.000000, 160.000000, 20.124523 
285, 0.527864, 425.869873, 426.397766, 20.124523 
286, 0.527864, 440.869873, 441.397766, 20.124523 
287, 0.527864, 455.869873, 456.397766, 20.124523 
288, 2.171573, 419.000000, 421.171570, 20.124523 
289, 2.171573, 434.000000, 436.171570, 20.124523 
290, 2.171573, 531.000000, 533.171570, 20.124523 
291, 2.171573, 256.000000, 258.171570, 20.124523 
292, 2.171573, 241.000000, 243.171570, 20.124523 
293, 3.000000, 511.000000, 514.000000, 20.124523 
294, 2.171573, 421.000000, 423.171570, 20.124523 
295, 0.527864, 457.869873, 458.397766, 20.124523 
296, 2.171573, 421.000000, 423.171570, 20.124523 
297, 2.171573, 406.000000, 408.171570, 20.124523 
298, 0.527864, 442.869873, 443.397766, 20.124523 
299, 0.527864, 457.869873, 458.397766, 20.124523 
300, 0.656854, 421.000000, 421.656860, 20.124523 
301, 0.656854, 436.000000, 436.656860, 20.124523 
302, 0.656854, 171.000000, 171.656860, 20.124523 
303, 0.656854, 156.000000, 156.656860, 20.124523 
304, 0.656854, 171.000000, 171.656860, 20.124523 
305, 0.527864, 171.000000, 171.527863, 20.124523 
306, 0.656854, 171.000000, 171.656860, 20.124523 
307, 0.527864, 171.000000, 171.527863, 20.124523 
308, 0.656854, 171.000000, 171.656860, 20.124523 
309, 2.211102, 171.000000, 173.211105, 20.124523 
310, 3.944272, 171.000000, 174.944275, 20.124523 
311, 3.944272, 399.130127, 403.074402, 20.124523 
312, 3.944272, 384.130127, 388.074402, 20.124523 
313, 3.944272, 399.130127, 403.074402, 20.124523 
314, 3.944272, 399.130127, 403.074402, 20.124523 
315, 3.944272, 519.000000, 522.944275, 20.124523 
316, 5.000000, 519.000000, 524.000000, 20.124523 
317, 3.944272, 519.000000, 522.944275, 20.124523 
318, 3.944272, 290.869904, 294.814178, 20.124523 
319, 5.000000, 270.260193, 275.260193, 20.124523 
320, 5.000000, 171.000000, 176.000000, 20.124523 
321, 5.000000, 270.260193, 275.260193, 20.124523 
322, 6.661903, 282.072479, 288.734375, 20.124523 
323, 5.000000, 270.260193, 275.260193, 20.124523 
324, 3.485281, 254.000000, 257.485291, 20.124523 
325, 3.485281, 239.000000, 242.485275, 20.124523 
326, 3.485281, 156.000000, 159.485275, 20.124523 
327, 2.211102, 156.000000, 158.211105, 20.124523 
328, 2.211102, 171.000000, 173.211105, 20.124523 
329, 1.324555, 171.000000, 172.324554, 20.124523 
330, 1.324555, 156.000000, 157.324554, 20.124523 
331, 1.324555, 156.000000, 157.324554, 20.124523 
332, 1.324555, 141.000000, 142.324554, 20.124523 
333, 1.324555, 126.000000, 127.324554, 20.124523 
334, 1.324555, 111.000000, 112.324554, 20.124523 
335, 1.324555, 126.000000, 127.324554, 20.124523 
336, 1.324555, 111.000000, 112.324554, 20.124523 
337, 1.324555, 126.000000, 127.324554, 20.124523 
338, 3.246211, 126.000015, 129.246216, 20.124523 
339, 3.246211, 141.000015, 144.246216, 20.124523 
340, 3.246211, 156.000015, 159.246216, 20.124523 
341, 3.944272, 156.000000, 159.944275, 20.124523 
342, 3.944272, 156.000000, 159.944275, 20.124523 
343, 3.944272, 171.000000, 174.944275, 20.124523 
344, 3.944272, 156.000000, 159.944275, 20.124523 
345, 3.246211, 156.000015, 159.246216, 20.124523 
346, 3.944272, 156.000000, 159.944275, 20.124523 
347, 3.944272, 275.869904, 279.814178, 20.124523 
348, 3.944272, 260.869904, 264.814178, 20.124523 
349, 2.211102, 246.619873, 248.830978, 20.124523 
350, 3.485281, 224.000000, 227.485275, 20.124523 
351, 3.485281, 141.000000, 144.485275, 20.124523 
352, 3.485281, 156.000000, 159.485275, 20.124523 
353, 2.211102, 156.000000, 158.211105, 20.124523 
354, 2.211102, 261.619873, 263.830994, 20.124523 
355, 2.211102, 246.619873, 248.830978, 20.124523 
356, 2.211102, 231.619873, 233.830978, 20.124523 
357, 3.485281, 209.000000, 212.485275, 20.124523 
358, 2.211102, 189.000000, 191.211105, 20.124523 
359, 2.211102, 204.000000, 206.211105, 20.124523 
360, 1.324555, 204.000000, 205.324554, 20.124523 
361, 1.324555, 219.000000, 220.324554, 20.124523 
362, 2.211102, 219.000000, 221.211105, 20.124523 
363, 3.485281, 219.000000, 222.485275, 20.124523 
364, 3.485281, 234.000000, 237.485275, 20.124523 
365, 3.485281, 219.000000, 222.485275, 20.124523 
366, 5.000000, 219.000000, 224.000000, 20.124523 
367, 5.000000, 204.000000, 209.000000, 20.124523 
368, 3.485281, 204.000000, 207.485275, 20.124523 
369, 3.485281, 189.000000, 192.485275, 20.124523 
370, 2.211102, 189.000000, 191.211105, 20.124523 
371, 2.211102, 186.619873, 188.830978, 20.124523 
372, 3.485281, 174.000000, 177.485275, 20.124523 
373, 2.211102, 174.000000, 176.211105, 20.124523 
374, 3.485281, 174.000000, 177.485275, 20.124523 
375, 5.000000, 180.260193, 185.260193, 20.124523 
376, 5.000000, 195.260193, 200.260193, 20.124523 
377, 5.000000, 210.260193, 215.260193, 20.124523 
378, 5.000000, 225.260193, 230.260193, 20.124523 
379, 5.000000, 210.260193, 215.260193, 20.124523 
380, 5.000000, 219.000000, 224.000000, 20.124523 
381, 6.313708, 219.000000, 225.313705, 20.124523 
382, 6.313708, 234.000000, 240.313705, 20.124523 
383, 6.313708, 219.000000, 225.313705, 20.124523 
384, 6.313708, 219.000000, 225.313705, 20.124523 
385, 6.313708, 204.000000, 210.313705, 20.124523 
386, 7.806249, 204.000000, 211.806244, 20.124523 
387, 6.661903, 203.999985, 210.661880, 20.124523 
388, 6.661903, 188.999985, 195.661880, 20.124523 
389, 7.806249, 189.000000, 196.806244, 20.124523 
390, 7.806249, 204.000000, 211.806244, 20.124523 
391, 7.806249, 189.000000, 196.806244, 20.124523 
392, 6.313708, 189.000000, 195.313705, 20.124523 
393, 5.000000, 189.000000, 194.000000, 20.124523 
394, 6.313708, 189.000000, 195.313705, 20.124523 
395, 7.806249, 189.000000, 196.806244, 20.124523 
396, 7.806249, 204.000000, 211.806244, 20.124523 
397, 9.422205, 204.000000, 213.422211, 20.124523 
398, 9.422205, 204.000000, 213.422211, 20.124523 
399, 8.416408, 204.000000, 212.416412, 20.124523 
400, 8.416408, 204.000000, 212.416412, 20.124523 
401, 8.416408, 208.000000, 216.416412, 20.124523 
402, 8.416408, 208.000000, 216.416412, 20.124523 
403, 8.416408, 200.000000, 208.416412, 20.124523 
404, 8.892444, 200.000000, 208.892441, 20.124523 
405, 8.892444, 204.000000, 212.892441, 20.124523 
406, 8.892444, 196.000000, 204.892441, 20.124523 
407, 8.892444, 192.000000, 200.892441, 20.124523 
408, 9.764823, 192.000000, 201.764816, 20.124523 
409, 9.764823, 192.000000, 201.764816, 20.124523 
410, 9.764823, 188.000000, 197.764816, 20.124523 
411, 9.764823, 188.000000, 197.764816, 20.124523 
412, 9.317822, 188.000000, 197.317825, 20.124523 
413, 9.317822, 188.000000, 197.317825, 20.124523 
414, 9.317822, 184.000000, 193.317825, 20.124523 
415, 10.231546, 184.000000, 194.231552, 20.124523 
416, 9.317822, 180.000000, 189.317825, 20.124523 
417, 9.764823, 180.000000, 189.764816, 20.124523 
418, 9.317822, 184.000000, 193.317825, 20.124523 
419, 9.317822, 176.000000, 185.317825, 20.124523 
420, 10.231546, 176.000000, 186.231552, 20.124523 
421, 9.317822, 176.000000, 185.317825, 20.124523 
422, 9.317822, 180.000000, 189.317825, 20.124523 
423, 9.317822, 184.000000, 193.317825, 20.124523 
424, 9.317822, 184.000000, 193.317825, 20.124523 
425, 8.416408, 180.000000, 188.416412, 20.124523 
426, 9.317822, 180.000000, 189.317825, 20.124523 
427, 8.416408, 184.000000, 192.416412, 20.124523 
428, 8.416408, 184.000000, 192.416412, 20.124523 
429, 9.317822, 180.000000, 189.317825, 20.124523 
430, 7.529964, 180.000015, 187.529984, 20.124523 
431, 7.083046, 180.000000, 187.083054, 20.124523 
432, 8.000000, 180.000000, 188.000000, 20.124523 
433, 7.083046, 180.000000, 187.083054, 20.124523 
434, 7.083046, 184.000000, 191.083054, 20.124523 
435, 7.083046, 184.000000, 191.083054, 20.124523 
436, 7.083046, 184.000000, 191.083054, 20.124523 
437, 7.529964, 180.000015, 187.529984, 20.124523 
438, 7.083046, 184.000000, 191.083054, 20.124523 
439, 6.180340, 180.000000, 186.180344, 20.124523 
440, 6.180340, 176.000000, 182.180344, 20.124523 
441, 6.180340, 172.000000, 178.180344, 20.124523 
442, 6.661903, 172.000000, 178.661911, 20.124523 
443, 5.770329, 172.000000, 177.770325, 20.124523 
444, 5.770329, 168.000000, 173.770325, 20.124523 
445, 5.770329, 172.000000, 177.770325, 20.124523 
446, 5.440307, 168.000000, 173.440308, 20.124523 
447, 5.198039, 175.380127, 180.578186, 20.124523 
448, 4.486833, 168.000000, 172.486832, 20.124523 
449, 4.486833, 172.000000, 176.486832, 20.124523 
450, 4.486833, 172.000000, 176.486832, 20.124523 
451, 4.486833, 172.000000, 176.486832, 20.124523 
452, 4.486833, 165.130096, 169.616928, 20.124523 
453, 4.219544, 176.942383, 181.161926, 20.124523 
454, 5.440307, 168.601501, 174.041809, 20.124523 
455, 4.848858, 164.000000, 168.848846, 20.124523 
456, 5.295630, 164.000000, 169.295624, 20.124523 
457, 4.433981, 164.000000, 168.433975, 20.124523 
458, 5.000000, 164.000000, 169.000000, 20.124523 
459, 5.000000, 168.000000, 173.000000, 20.124523 
460, 5.000000, 160.000000, 165.000000, 20.124523 
461, 5.000000, 164.000000, 169.000000, 20.124523 
462, 4.219544, 160.000000, 164.219543, 20.124523 
463, 4.219544, 156.000000, 160.219543, 20.124523 
464, 3.602325, 156.000000, 159.602325, 20.124523 
465, 3.602325, 156.000000, 159.602325, 20.124523 
466, 3.602325, 160.000000, 163.602325, 20.124523 
467, 2.810250, 156.000000, 158.810257, 20.124523 
468, 2.810250, 160.000000, 162.810257, 20.124523 
469, 2.211102, 156.000000, 158.211105, 20.124523 
470, 2.211102, 152.000000, 154.211105, 20.124523 
471, 1.708204, 152.000000, 153.708206, 20.124523 
472, 2.211102, 152.000000, 154.211105, 20.124523 
473, 1.708204, 152.000000, 153.708206, 20.124523 
474, 1.708204, 156.000000, 157.708206, 20.124523 
475, 0.830952, 152.000000, 152.830948, 20.124523 
476, 0.830952, 156.000000, 156.830948, 20.124523 
477, 0.000000, 152.000000, 152.000000, 20.124523 
478, 0.656854, 152.000000, 152.656860, 20.124523 
479, 0.656854, 148.000000, 148.656860, 20.124523 
480, 0.656854, 144.000000, 144.656860, 20.124523 
481, 0.656854, 148.000000, 148.656860, 20.124523 
482, 0.000000, 144.000000, 144.000000, 20.124523 
483, 0.000000, 140.000000, 140.000000, 20.124523 
484, 0.000000, 136.000000, 136.000000, 20.124523 
485, 0.527864, 136.000000, 136.527863, 20.124523 
486, 0.527864, 140.000000, 140.527863, 20.124523 
487, 0.527864, 132.000000, 132.527863, 20.124523 
488, 0.385165, 132.000015, 132.385178, 20.124523 
489, 0.385165, 128.000015, 128.385178, 20.124523 
490, 0.385165, 132.000015, 132.385178, 20.124523 
491, 0.830952, 127.999985, 128.830933, 20.124523 
492, 0.000000, 128.000000, 128.000000, 20.124523 
493, 0.527864, 128.000000, 128.527863, 20.124523 
494, 0.000000, 132.000000, 132.000000, 20.124523 
495, 0.000000, 132.000000, 132.000000, 20.124523 
496, 0.830952, 127.999985, 128.830933, 20.124523 
497, 0.830952, 127.999985, 128.830933, 20.124523 
498, 1.708204, 128.000000, 129.708206, 20.124523 
499, 0.830952, 123.999985, 124.830933, 20.124523 
500, 0.385165, 124.000015, 124.385178, 20.124523 
501, 0.385165, 128.000015, 128.385178, 20.124523 
502, 0.385165, 120.000015, 120.385178, 20.124523 
503, 0.527864, 120.000000, 120.527863, 20.124523 
504, 0.527864, 116.000000, 116.527863, 20.124523 
505, 0.876894, 116.000015, 116.876907, 20.124523 
506, 0.099020, 115.999985, 116.099014, 20.124523 
507, 0.385165, 116.000015, 116.385178, 20.124523 
508, 0.830952, 115.999985, 116.830933, 20.124523 
509, 0.830952, 111.999985, 112.830933, 20.124523 
510, 0.830952, 107.999985, 108.830933, 20.124523 
511, 0.830952, 103.999985, 104.830933, 20.124523 
512, 0.000000, 104.000008, 104.000008, 20.124523 
513, 0.830952, 103.999985, 104.830933, 20.124523 
514, 0.830952, 99.999985, 100.830933, 20.124523 
515, 1.403124, 100.000000, 101.403122, 20.124523 
516, 1.403124, 104.000000, 105.403122, 20.124523 
517, 0.830952, 99.999985, 100.830933, 20.124523 
518, 0.000000, 100.000008, 100.000008, 20.124523 
519, 0.757360, 104.000000, 104.757362, 20.124523 
520, 0.527864, 100.000000, 100.527863, 20.124523 
521, 0.527864, 96.000000, 96.527863, 20.124523 
522, 0.385165, 96.000015, 96.385178, 20.124523 
523, 0.385165, 92.000015, 92.385178, 20.124523 
524, 1.324555, 92.000000, 93.324554, 20.124523 
525, 0.385165, 88.000015, 88.385178, 20.124523 
526, 0.385165, 84.000015, 84.385178, 20.124523 
527, 0.099020, 83.999985, 84.099007, 20.124523 
528, 1.082763, 83.999985, 85.082748, 20.124523 
529, 0.385165, 84.000015, 84.385178, 20.124523 
530, 0.385165, 88.000015, 88.385178, 20.124523 
531, 0.385165, 80.000015, 80.385178, 20.124523 
532, 0.385165, 76.000015, 76.385178, 20.124523 
533, 0.385165, 80.000015, 80.385178, 20.124523 
534, 0.385165, 72.000015, 72.385178, 20.124523 
535, 0.830952, 71.999985, 72.830933, 20.124523 
536, 0.385165, 76.000015, 76.385178, 20.124523 
537, 0.099020, 71.999985, 72.099007, 20.124523 
538, 0.876894, 72.000015, 72.876907, 20.124523 
539, 0.099020, 71.999985, 72.099007, 20.124523 
540, 0.099020, 75.999985, 76.099007, 20.124523 
541, 0.099020, 75.999985, 76.099007, 20.124523 
542, 0.385165, 72.000015, 72.385178, 20.124523 
543, 0.385165, 76.000015, 76.385178, 20.124523 
544, 0.385165, 68.000015, 68.385178, 20.124523 
545, 0.385165, 64.000015, 64.385178, 20.124523 
546, 0.527864, 71.130096, 71.657959, 20.124523 
547, 0.385165, 68.000015, 68.385178, 20.124523 
548, 0.385165, 60.000015, 60.385181, 20.124523 
549, 0.385165, 56.000015, 56.385181, 20.124523 
550, 0.385165, 60.000015, 60.385181, 20.124523 
551, 0.385165, 52.000015, 52.385181, 20.124523 
552, 1.324555, 52.000004, 53.324558, 20.124523 
553, 0.385165, 52.000015, 52.385181, 20.124523 
554, 0.385165, 48.000015, 48.385181, 20.124523 
555, 0.385165, 49.602829, 49.987995, 20.124523 
556, 0.385165, 44.000015, 44.385181, 20.124523 
557, 0.527864, 51.130096, 51.657959, 20.124523 
558, 0.385165, 48.000015, 48.385181, 20.124523 
559, 0.830952, 59.927502, 60.758453, 20.124523 
560, 0.830952, 59.927502, 60.758453, 20.124523 
561, 0.385165, 40.000015, 40.385181, 20.124523 
562, 0.385165, 41.602829, 41.987995, 20.124523 
563, 0.385165, 36.000015, 36.385181, 20.124523 
564, 0.099020, 35.999989, 36.099007, 20.124523 
565, 0.876894, 36.000011, 36.876904, 20.124523 
566, 0.876894, 32.000011, 32.876904, 20.124523 
567, 0.527864, 39.130096, 39.657959, 20.124523 
568, 0.876894, 36.000011, 36.876904, 20.124523 
569, 0.876894, 28.000011, 28.876904, 20.124523 
570, 1.000000, 28.000000, 29.000000, 20.124523 
571, 2.000000, 28.000000, 30.000000, 20.124523 
572, 1.000000, 32.000000, 33.000000, 20.124523 
573, 1.000000, 32.000000, 33.000000, 20.124523 
574, 0.876894, 332.000000, 332.876892, 20.124523 
575, 0.000000, 28.000000, 28.000000, 20.124523 
576, 0.000000, 24.000000, 24.000000, 20.124523 
577, 1.000000, 24.000000, 25.000000, 20.124523 
578, 0.876894, 336.000000, 336.876892, 20.124523 
579, 1.000000, 26.000000, 27.000000, 20.124523 
580, 1.000000, 30.000000, 31.000000, 20.124523 
581, 1.000000, 24.000000, 25.000000, 20.124523 
582, 0.876894, 24.000011, 24.876904, 20.124523 
583, 1.837722, 24.000004, 25.837727, 20.124523 
584, 1.837722, 28.000004, 29.837727, 20.124523 
585, 2.000000, 24.000000, 26.000000, 20.124523 
586, 1.837722, 24.000004, 25.837727, 20.124523 
587, 1.837722, 20.000004, 21.837727, 20.124523 
588, 1.837722, 22.869900, 24.707623, 20.124523 
589, 1.837722, 22.869900, 24.707623, 20.124523 
590, 2.000000, 20.000000, 22.000000, 20.124523 
591, 2.000000, 24.000000, 26.000000, 20.124523 
592, 2.000000, 22.000000, 24.000000, 20.124523 
593, 1.000000, 22.000000, 23.000000, 20.124523 
594, 1.000000, 18.000000, 19.000000, 19.000000 
595, 1.000000, 22.000000, 23.000000, 19.000000 
596, 0.000000, 18.000000, 18.000000, 18.000000 
597, 1.000000, 18.000000, 19.000000, 18.000000 
598, 0.000000, 22.000000, 22.000000, 18.000000 
599, 0.000000, 16.000000, 16.000000, 16.000000 
600, 0.000000, 18.000000, 18.000000, 16.000000 
601, 0.000000, 22.000000, 22.000000, 16.000000 
602, 0.099020, 348.000000, 348.098999, 16.000000 
603, 0.099020, 348.000000, 348.098999, 16.000000 
604, 0.099020, 11.999989, 12.099009, 12.099009 
605, 0.099020, 7.999989, 8.099009, 8.099009 
606, 1.082763, 7.999989, 9.082751, 8.099009 
607, 1.082763, 3.999989, 5.082751, 5.082751 
608, 1.324555, 18.869900, 20.194454, 5.082751 
609, 1.082763, 7.999989, 9.082751, 5.082751 
610, 0.099020, 4.619854, 4.718874, 4.718874 
611, 0.385165, 25.602829, 25.987993, 4.718874 
612, 0.099020, 8.619854, 8.718874, 4.718874 
613, 0.000000, 18.000000, 18.000000, 4.718874 
614, 0.099020, 7.999989, 8.099009, 4.718874 
615, 0.099020, 4.619854, 4.718874, 4.718874 
616, 0.385165, 25.602829, 25.987993, 4.718874 
617, 1.082763, 3.999989, 5.082751, 4.718874 
618, 1.324555, 18.869900, 20.194454, 4.718874 
619, 1.082763, 3.999989, 5.082751, 4.718874 
620, 1.082763, 7.999989, 9.082751, 4.718874 
621, 1.082763, 4.924633, 6.007396, 4.718874 
622, 1.082763, 8.924633, 10.007396, 4.718874 
623, 1.082763, 3.999989, 5.082751, 4.718874 
624, 1.082763, 7.999989, 9.082751, 4.718874 
625, 1.324555, 18.869900, 20.194454, 4.718874 
626, 1.000000, 18.000000, 19.000000, 4.718874 
627, 0.099020, 4.619854, 4.718874, 4.718874 
628, 0.099020, 8.619854, 8.718874, 4.718874 
629, 0.099020, 7.999989, 8.099009, 4.718874 
630, 1.082763, 3.999989, 5.082751, 4.718874 
631, 0.000000, 18.000000, 18.000000, 4.718874 
632, 0.876894, 10.072499, 10.949394, 4.718874 
633, 0.099020, 7.999989, 8.099009, 4.718874 
634, 0.000000, 18.000000, 18.000000, 4.718874 
635, 0.385165, 25.602829, 25.987993, 4.718874 
636, 0.099020, 8.619854, 8.718874, 4.718874 
637, 0.099020, 0.619854, 0.718874, 0.718874 
638, 0.099020, 4.619854, 4.718874, 0.718874 
639, 0.385165, 21.602829, 21.987993, 0.718874 
640, 0.099020, 4.000011, 4.099031, 0.718874 
641, 0.099020, 4.000011, 4.099031, 0.718874 
642, 0.099020, 4.619854, 4.718874, 0.718874 
643, 0.099020, 4.619854, 4.718874, 0.718874 
644, 0.876894, 6.072499, 6.949394, 0.718874 
645, 0.099020, 4.619854, 4.718874, 0.718874 
646, 0.099020, 4.619854, 4.718874, 0.718874 
647, 0.099020, 4.000011, 4.099031, 0.718874 
648, 0.385165, 21.602829, 21.987993, 0.718874 
649, 0.099020, 4.619854, 4.718874, 0.718874 
650, 0.385165, 21.602829, 21.987993, 0.718874 
651, 0.385165, 21.602829, 21.987993, 0.718874 
652, 0.099020, 3.999989, 4.099008, 0.718874 
653, 0.099020, 4.619854, 4.718874, 0.718874 
654, 0.099020, 4.619854, 4.718874, 0.718874 
655, 1.082763, 3.075367, 4.158130, 0.718874 
656, 0.099020, 4.619854, 4.718874, 0.718874 
657, 0.000000, 22.000000, 22.000000, 0.718874 
658, 0.099020, 4.619854, 4.718874, 0.718874 
659, 1.082763, 3.075367, 4.158130, 0.718874 
660, 0.099020, 4.619854, 4.718874, 0.718874 
661, 0.099020, 4.619854, 4.718874, 0.718874 
662, 0.099020, 4.619854, 4.718874, 0.718874 
663, 0.385165, 21.602829, 21.987993, 0.718874 
664, 0.099020, 4.619854, 4.718874, 0.718874 
665, 0.099020, 4.619854, 4.718874, 0.718874 
666, 0.099020, 4.000011, 4.099031, 0.718874 
667, 0.876894, 6.072499, 6.949394, 0.718874 
668, 0.099020, 4.619854, 4.718874, 0.718874 
669, 0.099020, 4.619854, 4.718874, 0.718874 
670, 0.099020, 4.000011, 4.099031, 0.718874 
671, 0.099020, 4.619854, 4.718874, 0.718874 
672, 1.082763, 3.075367, 4.158130, 0.718874 
673, 1.082763, 7.075367, 8.158130, 0.718874 
674, 2.071068, 5.739786, 7.810854, 0.718874 
675, 1.082763, 7.075367, 8.158130, 0.718874 
676, 1.324555, 14.869900, 16.194454, 0.718874 
677, 2.071068, 5.739786, 7.810854, 0.718874 
678, 1.082763, 3.999989, 5.082751, 0.718874 
679, 1.082763, 7.075367, 8.158130, 0.718874 
680, 1.082763, 3.999989, 5.082751, 0.718874 
681, 1.082763, 4.924633, 6.007396, 0.718874 
682, 1.082763, 4.000011, 5.082774, 0.718874 
683, 1.000000, 18.000000, 19.000000, 0.718874 
684, 1.000000, 18.000000, 19.000000, 0.718874 
685, 1.082763, 3.075367, 4.158130, 0.718874 
686, 0.099020, 0.619854, 0.718874, 0.718874 
687, 0.876894, 6.072499, 6.949394, 0.718874 
688, 1.082763, 3.075367, 4.158130, 0.718874 
689, 1.082763, 3.075367, 4.158130, 0.718874 
690, 0.099020, 4.000011, 4.099031, 0.718874 
691, 0.099020, 4.000011, 4.099031, 0.718874 
692, 1.082763, 3.075367, 4.158130, 0.718874 
693, 0.876894, 6.072499, 6.949394, 0.718874 
694, 0.099020, 4.619854, 4.718874, 0.718874 
695, 1.082763, 3.075367, 4.158130, 0.718874 
696, 0.099020, 4.000011, 4.099031, 0.718874 
697, 0.099020, 4.619854, 4.718874, 0.718874 
698, 0.099020, 4.619854, 4.718874, 0.718874 
699, 0.099020, 4.619854, 4.718874, 0.718874 
700, 0.099020, 3.999989, 4.099008, 0.718874 
701, 0.099020, 7.380146, 7.479166, 0.718874 
702, 1.082763, 7.075367, 8.158130, 0.718874 
703, 1.082763, 7.075367, 8.158130, 0.718874 
704, 0.385165, 17.602829, 17.987993, 0.718874 
705, 0.099020, 7.380146, 7.479166, 0.718874 
706, 0.876894, 4.000010, 4.876905, 0.718874 
707, 0.876894, 6.072499, 6.949394, 0.718874 
708, 1.837722, 10.869900, 12.707623, 0.718874 
709, 1.837722, 10.869900, 12.707623, 0.718874 
710, 0.876894, 8.000010, 8.876905, 0.718874 
711, 1.000000, 26.000000, 27.000000, 0.718874 
712, 1.837722, 10.869900, 12.707623, 0.718874 
713, 0.876894, 1.927501, 2.804395, 0.718874 
714, 0.099020, 7.380146, 7.479166, 0.718874 
715, 0.876894, 3.999990, 4.876884, 0.718874 
716, 0.527864, 23.130098, 23.657963, 0.718874 
717, 0.876894, 3.999990, 4.876884, 0.718874 
718, 0.876894, 5.927501, 6.804395, 0.718874 
719, 0.099020, 7.380146, 7.479166, 0.718874 
720, 0.527864, 23.130098, 23.657963, 0.718874 
721, 0.099020, 7.380146, 7.479166, 0.718874 
722, 0.876894, 3.999990, 4.876884, 0.718874 
723, 0.876894, 5.927501, 6.804395, 0.718874 
724, 0.876894, 4.000010, 4.876905, 0.718874 
725, 0.527864, 27.130098, 27.657963, 0.718874 
726, 0.876894, 8.000010, 8.876905, 0.718874 
727, 0.876894, 12.000010, 12.876905, 0.718874 
728, 0.876894, 5.927501, 6.804395, 0.718874 
729, 0.876894, 9.927501, 10.804396, 0.718874 
730, 1.000000, 34.000000, 35.000000, 0.718874 
731, 0.876894, 8.000010, 8.876905, 0.718874 
732, 1.837722, 8.000004, 9.837727, 0.718874 
733, 0.876894, 8.000010, 8.876905, 0.718874 
734, 0.876894, 5.927501, 6.804395, 0.718874 
735, 1.837722, 4.000004, 5.837726, 0.718874 
736, 1.837722, 1.130100, 2.967823, 0.718874 
737, 1.837722, 4.000004, 5.837726, 0.718874 
738, 1.394449, 29.380131, 30.774580, 0.718874 
739, 0.876894, 9.927501, 10.804396, 0.718874 
740, 1.837722, 5.130100, 6.967823, 0.718874 
741, 1.837722, 3.999996, 5.837718, 0.718874 
742, 1.837722, 5.130100, 6.967823, 0.718874 
743, 1.837722, 3.999996, 5.837718, 0.718874 
744, 1.837722, 5.130100, 6.967823, 0.718874 
745, 1.837722, 3.999996, 5.837718, 0.718874 
746, 1.837722, 4.000004, 5.837726, 0.718874 
747, 0.876894, 9.927501, 10.804396, 0.718874 
748, 0.876894, 9.927501, 10.804396, 0.718874 
749, 1.837722, 4.000004, 5.837726, 0.718874 
750, 1.394449, 29.380131, 30.774580, 0.718874 
751, 0.876894, 9.927501, 10.804396, 0.718874 
752, 2.000000, 38.000000, 40.000000, 0.718874 
753, 0.876894, 9.927501, 10.804396, 0.718874 
754, 1.837722, 5.130100, 6.967823, 0.718874 
755, 0.876894, 9.927501, 10.804396, 0.718874 
756, 2.763932, 15.130098, 17.894032, 0.718874 
757, 1.837722, 5.130100, 6.967823, 0.718874 
758, 1.394449, 29.380131, 30.774580, 0.718874 
759, 0.876894, 9.927501, 10.804396, 0.718874 
760, 1.394449, 29.380131, 30.774580, 0.718874 
761, 2.000000, 38.000000, 40.000000, 0.718874 
762, 2.763932, 15.130098, 17.894032, 0.718874 
763, 1.394449, 29.380131, 30.774580, 0.718874 
764, 1.837722, 3.999996, 5.837718, 0.718874 
765, 2.000000, 38.000000, 40.000000, 0.718874 
766, 1.837722, 5.130100, 6.967823, 0.718874 
767, 2.763932, 15.130098, 17.894032, 0.718874 
768, 1.394449, 29.380131, 30.774580, 0.718874 
769, 1.837722, 3.999996, 5.837718, 0.718874 
770, 0.876894, 9.927501, 10.804396, 0.718874 
771, 1.837722, 5.130100, 6.967823, 0.718874 
772, 1.394449, 29.380131, 30.774580, 0.718874 
773, 1.837722, 4.000004, 5.837726, 0.718874 
774, 1.837722, 4.000004, 5.837726, 0.718874 
775, 2.763932, 15.130098, 17.894032, 0.718874 
776, 1.394449, 29.380131, 30.774580, 0.718874 
777, 2.763932, 15.130098, 17.894032, 0.718874 
778, 2.000000, 38.000000, 40.000000, 0.718874 
779, 1.837722, 3.999996, 5.837718, 0.718874 
780, 1.837722, 5.130100, 6.967823, 0.718874 
781, 1.837722, 5.130100, 6.967823, 0.718874 
782, 1.837722, 5.130100, 6.967823, 0.718874 
783, 0.876894, 9.927501, 10.804396, 0.718874 
784, 2.763932, 15.130098, 17.894032, 0.718874 
785, 1.837722, 3.999996, 5.837718, 0.718874 
786, 1.394449, 29.380131, 30.774580, 0.718874 
787, 1.394449, 29.380131, 30.774580, 0.718874 
788, 2.000000, 38.000000, 40.000000, 0.718874 
789, 1.837722, 5.130100, 6.967823, 0.718874 
790, 1.837722, 4.000004, 5.837726, 0.718874 
791, 1.837722, 4.000004, 5.837726, 0.718874 
792, 0.876894, 9.927501, 10.804396, 0.718874 
793, 2.000000, 38.000000, 40.000000, 0.718874 
794, 0.876894, 9.927501, 10.804396, 0.718874 
795, 2.763932, 15.130098, 17.894032, 0.718874 
796, 0.876894, 9.927501, 10.804396, 0.718874 
797, 2.763932, 15.130098, 17.894032, 0.718874 
798, 1.837722, 5.130100, 6.967823, 0.718874 
799, 1.837722, 5.130100, 6.967823, 0.718874 
800, 1.837722, 5.130100, 6.967823, 0.718874 
801, 0.876894, 9.927501, 10.804396, 0.718874 
802, 1.394449, 29.380131, 30.774580, 0.718874 
803, 1.394449, 29.380131, 30.774580, 0.718874 
804, 1.837722, 4.000004, 5.837726, 0.718874 
805, 1.837722, 4.000004, 5.837726, 0.718874 
806, 0.876894, 9.927501, 10.804396, 0.718874 
807, 0.876894, 9.927501, 10.804396, 0.718874 
808, 1.394449, 29.380131, 30.774580, 0.718874 
809, 1.837722, 3.999996, 5.837718, 0.718874 
810, 1.837722, 4.000004, 5.837726, 0.718874 
811, 1.837722, 3.999996, 5.837718, 0.718874 
812, 1.837722, 3.999996, 5.837718, 0.718874 
813, 1.837722, 4.000004, 5.837726, 0.718874 
814, 2.000000, 38.000000, 40.000000, 0.718874 
815, 2.763932, 15.130098, 17.894032, 0.718874 
816, 1.837722, 5.130100, 6.967823, 0.718874 
817, 1.394449, 29.380131, 30.774580, 0.718874 
818, 1.394449, 29.380131, 30.774580, 0.718874 
819, 1.837722, 4.000004, 5.837726, 0.718874 
820, 1.837722, 5.130100, 6.967823, 0.718874 
821, 0.876894, 9.927501, 10.804396, 0.718874 
822, 1.837722, 5.130100, 6.967823, 0.718874 
823, 2.000000, 38.000000, 40.000000, 0.718874 
824, 1.394449, 29.380131, 30.774580, 0.718874 
825, 1.837722, 5.130100, 6.967823, 0.718874 
826, 2.763932, 15.130098, 17.894032, 0.718874 
827, 1.394449, 29.380131, 30.774580, 0.718874 
828, 1.394449, 29.380131, 30.774580, 0.718874 
829, 2.763932, 15.130098, 17.894032, 0.718874 
830, 1.394449, 29.380131, 30.774580, 0.718874 
831, 2.000000, 38.000000, 40.000000, 0.718874 
832, 1.837722, 5.130100, 6.967823, 0.718874 
833, 2.000000, 38.000000, 40.000000, 0.718874 
834, 2.000000, 38.000000, 40.000000, 0.718874 
835, 1.394449, 29.380131, 30.774580, 0.718874 
836, 2.763932, 15.130098, 17.894032, 0.718874 
837, 1.837722, 5.130100, 6.967823, 0.718874 
838, 2.763932, 15.130098, 17.894032, 0.718874 
839, 2.763932, 15.130098, 17.894032, 0.718874 
840, 1.837722, 4.000004, 5.837726, 0.718874 
841, 2.763932, 15.130098, 17.894032, 0.718874 
842, 1.837722, 5.130100, 6.967823, 0.718874 
843, 1.394449, 29.380131, 30.774580, 0.718874 
844, 1.837722, 3.999996, 5.837718, 0.718874 
845, 1.394449, 29.380131, 30.774580, 0.718874 
846, 1.837722, 5.130100, 6.967823, 0.718874 
847, 2.763932, 15.130098, 17.894032, 0.718874 
848, 1.837722, 4.000004, 5.837726, 0.718874 
849, 1.837722, 4.000004, 5.837726, 0.718874 
850, 1.394449, 29.380131, 30.774580, 0.718874 
851, 1.837722, 3.999996, 5.837718, 0.718874 
852, 1.837722, 5.130100, 6.967823, 0.718874 
853, 1.394449, 29.380131, 30.774580, 0.718874 
854, 1.837722, 3.999996, 5.837718, 0.718874 
855, 2.000000, 38.000000, 40.000000, 0.718874 
856, 2.000000, 38.000000, 40.000000, 0.718874 
857, 1.394449, 29.380131, 30.774580, 0.718874 
858, 2.000000, 38.000000, 40.000000, 0.718874 
859, 2.000000, 38.000000, 40.000000, 0.718874 
860, 2.000000, 38.000000, 40.000000, 0.718874 
861, 1.837722, 5.130100, 6.967823, 0.718874 
862, 2.000000, 38.000000, 40.000000, 0.718874 
863, 1.837722, 5.130100, 6.967823, 0.718874 
864, 1.837722, 5.130100, 6.967823, 0.718874 
865, 1.837722, 5.130100, 6.967823, 0.718874 
866, 0.876894, 9.927501, 10.804396, 0.718874 
867, 0.876894, 9.927501, 10.804396, 0.718874 
868, 1.394449, 29.380131, 30.774580, 0.718874 
869, 1.837722, 4.000004, 5.837726, 0.718874 
870, 0.876894, 9.927501, 10.804396, 0.718874 
871, 0.876894, 9.927501, 10.804396, 0.718874 
872, 1.837722, 4.000004, 5.837726, 0.718874 
873, 2.000000, 38.000000, 40.000000, 0.718874 
874, 0.876894, 9.927501, 10.804396, 0.718874 
875, 1.394449, 29.380131, 30.774580, 0.718874 
876, 1.837722, 5.130100, 6.967823, 0.718874 
877, 1.394449, 29.380131, 30.774580, 0.718874 
878, 1.394449, 29.380131, 30.774580, 0.718874 
879, 1.394449, 29.380131, 30.774580, 0.718874 
880, 1.837722, 3.999996, 5.837718, 0.718874 
881, 2.763932, 19.130098, 21.894032, 0.718874 
882, 0.876894, 5.927501, 6.804395, 0.718874 
883, 1.837722, 7.999996, 9.837719, 0.718874 
884, 1.837722, 1.130100, 2.967823, 0.718874 
885, 1.394449, 29.380131, 30.774580, 0.718874 
886, 1.837722, 3.999996, 5.837718, 0.718874 
887, 1.394449, 29.380131, 30.774580, 0.718874 
888, 1.837722, 5.130100, 6.967823, 0.718874 
889, 2.763932, 15.130098, 17.894032, 0.718874 
890, 2.000000, 38.000000, 40.000000, 0.718874 
891, 1.837722, 5.130100, 6.967823, 0.718874 
892, 2.763932, 15.130098, 17.894032, 0.718874 
893, 1.837722, 5.130100, 6.967823, 0.718874 
894, 1.837722, 3.999996, 5.837718, 0.718874 
895, 1.394449, 29.380131, 30.774580, 0.718874 
896, 1.837722, 4.000004, 5.837726, 0.718874 
897, 0.876894, 9.927501, 10.804396, 0.718874 
898, 2.763932, 15.130098, 17.894032, 0.718874 
899, 1.394449, 29.380131, 30.774580, 0.718874 
900, 1.394449, 29.380131, 30.774580, 0.718874 
901, 1.837722, 4.000004, 5.837726, 0.718874 
902, 1.837722, 5.130100, 6.967823, 0.718874 
903, 0.876894, 9.927501, 10.804396, 0.718874 
904, 0.876894, 9.927501, 10.804396, 0.718874 
905, 1.837722, 3.999996, 5.837718, 0.718874 
906, 0.876894, 9.927501, 10.804396, 0.718874 
907, 1.837722, 4.000004, 5.837726, 0.718874 
908, 1.837722, 5.130100, 6.967823, 0.718874 
909, 2.000000, 38.000000, 40.000000, 0.718874 
910, 2.000000, 38.000000, 40.000000, 0.718874 
911, 2.000000, 38.000000, 40.000000, 0.718874 
912, 1.837722, 4.000004, 5.837726, 0.718874 
913, 2.000000, 38.000000, 40.000000, 0.718874 
914, 2.763932, 15.130098, 17.894032, 0.718874 
915, 2.000000, 38.000000, 40.000000, 0.718874 
916, 1.837722, 4.000004, 5.837726, 0.718874 
917, 2.763932, 15.130098, 17.894032, 0.718874 
918, 1.394449, 29.380131, 30.774580, 0.718874 
919, 1.837722, 3.999996, 5.837718, 0.718874 
920, 1.837722, 5.130100, 6.967823, 0.718874 
921, 1.837722, 5.130100, 6.967823, 0.718874 
922, 1.837722, 3.999996, 5.837718, 0.718874 
923, 2.000000, 38.000000, 40.000000, 0.718874 
924, 1.837722, 3.999996, 5.837718, 0.718874 
925, 1.837722, 7.999996, 9.837719, 0.718874 
926, 2.000000, 34.000000, 36.000000, 0.718874 
927, 1.394449, 33.380131, 34.774582, 0.718874 
928, 1.394449, 33.380131, 34.774582, 0.718874 
929, 2.000000, 34.000000, 36.000000, 0.718874 
930, 1.837722, 7.999996, 9.837719, 0.718874 
931, 1.837722, 6.869900, 8.707623, 0.718874 
932, 0.876894, 5.927501, 6.804395, 0.718874 
933, 1.837722, 6.869900, 8.707623, 0.718874 
934, 0.876894, 5.927501, 6.804395, 0.718874 
935, 0.876894, 5.927501, 6.804395, 0.718874 
936, 1.837722, 1.130100, 2.967823, 0.718874 
937, 1.837722, 4.000004, 5.837726, 0.718874 
938, 1.837722, 3.999996, 5.837718, 0.718874 
939, 1.837722, 4.000004, 5.837726, 0.718874 
940, 1.837722, 5.130100, 6.967823, 0.718874 
941, 1.837722, 5.130100, 6.967823, 0.718874 
942, 1.394449, 29.380131, 30.774580, 0.718874 
943, 2.763932, 15.130098, 17.894032, 0.718874 
944, 2.763932, 15.130098, 17.894032, 0.718874 
945, 2.000000, 38.000000, 40.000000, 0.718874 
946, 1.837722, 4.000004, 5.837726, 0.718874 
947, 1.394449, 29.380131, 30.774580, 0.718874 
948, 1.837722, 5.130100, 6.967823, 0.718874 
949, 2.000000, 38.000000, 40.000000, 0.718874 
950, 1.837722, 5.130100, 6.967823, 0.718874 
951, 2.763932, 15.130098, 17.894032, 0.718874 
952, 1.394449, 29.380131, 30.774580, 0.718874 
953, 0.876894, 9.927501, 10.804396, 0.718874 
954, 1.837722, 5.130100, 6.967823, 0.718874 
955, 2.763932, 15.130098, 17.894032, 0.718874 
956, 1.837722, 5.130100, 6.967823, 0.718874 
957, 2.000000, 38.000000, 40.000000, 0.718874 
958, 1.837722, 5.130100, 6.967823, 0.718874 
959, 1.837722, 4.000004, 5.837726, 0.718874 
960, 1.837722, 4.000004, 5.837726, 0.718874 
961, 2.000000, 38.000000, 40.000000, 0.718874 
962, 1.837722, 5.130100, 6.967823, 0.718874 
963, 2.000000, 38.000000, 40.000000, 0.718874 
964, 1.394449, 29.380131, 30.774580, 0.718874 
965, 1.394449, 29.380131, 30.774580, 0.718874 
966, 2.763932, 15.130098, 17.894032, 0.718874 
967, 2.763932, 15.130098, 17.894032, 0.718874 
968, 2.763932, 15.130098, 17.894032, 0.718874 
969, 2.000000, 38.000000, 40.000000, 0.718874 
970, 1.837722, 5.130100, 6.967823, 0.718874 
971, 1.394449, 25.380131, 26.774580, 0.718874 
972, 2.763932, 11.130098, 13.894031, 0.718874 
973, 2.763932, 11.130098, 13.894031, 0.718874 
974, 1.837722, 1.130100, 2.967823, 0.718874 
975, 1.837722, 3.999996, 5.837718, 0.718874 
976, 1.394449, 29.380131, 30.774580, 0.718874 
977, 2.000000, 38.000000, 40.000000, 0.718874 
978, 2.763932, 15.130098, 17.894032, 0.718874 
979, 1.394449, 29.380131, 30.774580, 0.718874 
980, 2.763932, 15.130098, 17.894032, 0.718874 
981, 2.763932, 15.130098, 17.894032, 0.718874 
982, 2.000000, 38.000000, 40.000000, 0.718874 
983, 1.837722, 5.130100, 6.967823, 0.718874 
984, 1.837722, 4.000004, 5.837726, 0.718874 
985, 1.837722, 4.000004, 5.837726, 0.718874 
986, 1.837722, 3.999996, 5.837718, 0.718874 
987, 1.837722, 3.999996, 5.837718, 0.718874 
988, 1.837722, 5.130100, 6.967823, 0.718874 
989, 1.394449, 29.380131, 30.774580, 0.718874 
990, 2.000000, 38.000000, 40.000000, 0.718874 
991, 2.000000, 38.000000, 40.000000, 0.718874 
992, 1.837722, 3.999996, 5.837718, 0.718874 
993, 1.837722, 4.000004, 5.837726, 0.718874 
994, 1.837722, 4.000004, 5.837726, 0.718874 
995, 0.876894, 9.927501, 10.804396, 0.718874 
996, 2.763932, 15.130098, 17.894032, 0.718874 
997, 1.837722, 4.000004, 5.837726, 0.718874 
998, 0.876894, 9.927501, 10.804396, 0.718874 
999, 0.876894, 9.927501, 10.804396, 0.718874 
