min_samples_leaf,accuracy
1,0.96625
6,0.93625
11,0.913
16,0.8935
21,0.87925
26,0.8625
31,0.84975
36,0.839
41,0.8315
46,0.823
51,0.81375
56,0.804
61,0.797
66,0.79175
71,0.7855
76,0.77825
81,0.77675
86,0.772
91,0.7665
96,0.7615
101,0.75675
106,0.75225
111,0.74725
116,0.7415
121,0.7385
126,0.73375
131,0.73125
136,0.72825
141,0.72125
146,0.7215
151,0.72
156,0.71475
161,0.71225
166,0.70775
171,0.70325
176,0.7035
181,0.6965
186,0.698
191,0.69375
196,0.69075
